…
ggplot(d50, aes(Ts, `errors`))+
  geom_line()+
  theme_clean()+
  labs(title = "number of errors since last time stamp 2/11") + xlab("Time Stamp")

<img src="{{< blogdown/postref >}}index_files/figure-html/unnamed-chunk-6-1.png" width="672" />

view(d30)

Alpha

alpha30 <- read_csv("/tank301/onedrive/OneDrive_Personal/job_stuff/portfolio/Data/alphadata30.csv")
alpha30

## # A tibble: 30 x 14
##    TitleId Ts                  `Total Logins` `Unique Logins` UniquePayers
##    <chr>   <dttm>                       <dbl>           <dbl>        <dbl>
##  1 D8AB8   2021-01-20 00:00:00             25              13            0
##  2 D8AB8   2021-01-21 00:00:00             53              15            0
##  3 D8AB8   2021-01-22 00:00:00             18               7            0
##  4 D8AB8   2021-01-23 00:00:00             33               9            0
##  5 D8AB8   2021-01-24 00:00:00             56              14            0
##  6 D8AB8   2021-01-25 00:00:00             37               9            0
##  7 D8AB8   2021-01-26 00:00:00             42               9            0
##  8 D8AB8   2021-01-27 00:00:00             45               5            0
##  9 D8AB8   2021-01-28 00:00:00             58              13            0
## 10 D8AB8   2021-01-29 00:00:00            131              14            0
## # … with 20 more rows, and 9 more variables: Revenue <chr>, Purchases <dbl>,
## #   Total Calls <dbl>, Total Successful Calls <dbl>, Total Errors <dbl>,
## #   Arpu <chr>, Arppu <chr>, Average Purchase Price <chr>, New Users <dbl>
…
